aliyun/资料/shop/xiaomi/com.mm.lobster.mortgage_3/com.mm.lobster.mortgage_2.1.apk.bugreport_HM3S_V9.5.4.0.MALCNFA_out/raw/sample_graph_binder_sample_alt.vcd
$timescale 1ms $end
$scope am_logs $end
$var wire 8 n0 com_android_commands_monkey $end
$upscope $end
$enddefinitions $end
#16061763016
bZ n0
#16067193058
b00000001 n0
#16067196277
bZ n0
#16067800161
b00000001 n0
#16067802330
bZ n0
#16067803240
b00000001 n0
#16067805896
bZ n0
#16067807122
b00000001 n0
#16067809873
bZ n0
#16067810504
b00000001 n0
#16067813531
bZ n0
#16067880529
bZ n0
