aliyun/资料/shop/apk/xiaomi/com.mm.lobster.mortgage_3/com.mm.lobster.mortgage_2.1.apk.bugreport_HM3S_V9.5.4.0.MALCNFA_out/raw/sample_graph_dvm_lock_sample.vcd
$timescale 1ms $end
$scope am_logs $end
$var wire 8 n0 uiautomator $end
$var wire 8 n1 system_server $end
$var wire 8 n2 com_yuyoogame_ameng_puzzle3_sub1 $end
$upscope $end
$enddefinitions $end
#16061763016
bZ n0
bZ n1
bZ n2
#16063077324
b11111111 n0
#16063077326
bZ n0
#16063077928
b00000001 n0
#16063078077
bZ n0
#16063078682
b00000001 n0
#16063078831
bZ n0
#16063079435
b00000001 n0
#16063079584
bZ n0
#16063080188
b00000001 n0
#16063080337
bZ n0
#16063080942
b00000001 n0
#16063081091
bZ n0
#16063081695
b00000001 n0
#16063081844
bZ n0
#16063082449
b00000001 n0
#16063082495
b00000001 n1
#16063082598
bZ n0
#16063095187
bZ n1
#16063100537
b11111111 n2
#16063100539
bZ n2
b11111111 n2
#16063100541
bZ n2
b11111111 n2
#16063100543
bZ n2
b11111111 n2
#16063100545
bZ n2
#16067742243
b00000001 n1
#16067742245
b00000010 n1
#16067746222
b00000011 n1
b00000100 n1
b00000101 n1
#16067746223
b00000110 n1
#16067758914
b00000101 n1
b00000100 n1
b00000011 n1
#16067758915
b00000010 n1
#16067758994
b00000001 n1
#16067758996
bZ n1
#16067880529
bZ n0
bZ n1
bZ n2
